ERROR! Please define ee_ptr_int to a type that holds a pointer!
ERROR! Please define ee_ptr_int to a type that holds a pointer!
ERROR! Please define ee_ptr_int to a type that holds a pointer!
ERROR! Please define ee_ptr_int to a type that holds a pointer!
ERROR! Please define ee_ptr_int to a type that holds a pointer!
ERROR! Please define ee_ptr_int to a type that holds a pointer!
ERROR! Please define ee_ptr_int to a type that holds a pointer!
ERROR! Please define ee_ptr_int to a type that holds a pointer!
ERROR! Please define ee_ptr_int to a type that holds a pointer!
2K performance run parameters for coremark.
ERROR: ee_ptr_int is not a datatype that holds an int pointer!
ERROR: Please modify the datatypes in core_portme.h!
CoreMark Size    : 666
Total ticks      : 28912
Total time (secs): 28.912000
Iterations/Sec   : 11068.068622
Iterations       : 320000
Compiler version : GCC4.9.2
Compiler flags   : -g -DPERFORMANCE_RUN=1 -lrt
Parallel Fork : 8
Memory location  : Please put data memory location here
			(e.g. code in flash, data on heap etc)
seedcrc          : 0xe9f5
[0]crclist       : 0xe714
[1]crclist       : 0xe714
[2]crclist       : 0xe714
[3]crclist       : 0xe714
[4]crclist       : 0xe714
[5]crclist       : 0xe714
[6]crclist       : 0xe714
[7]crclist       : 0xe714
[0]crcmatrix     : 0x1fd7
[1]crcmatrix     : 0x1fd7
[2]crcmatrix     : 0x1fd7
[3]crcmatrix     : 0x1fd7
[4]crcmatrix     : 0x1fd7
[5]crcmatrix     : 0x1fd7
[6]crcmatrix     : 0x1fd7
[7]crcmatrix     : 0x1fd7
[0]crcstate      : 0x8e3a
[1]crcstate      : 0x8e3a
[2]crcstate      : 0x8e3a
[3]crcstate      : 0x8e3a
[4]crcstate      : 0x8e3a
[5]crcstate      : 0x8e3a
[6]crcstate      : 0x8e3a
[7]crcstate      : 0x8e3a
[0]crcfinal      : 0x25b5
[1]crcfinal      : 0x25b5
[2]crcfinal      : 0x25b5
[3]crcfinal      : 0x25b5
[4]crcfinal      : 0x25b5
[5]crcfinal      : 0x25b5
[6]crcfinal      : 0x25b5
[7]crcfinal      : 0x25b5
Errors detected
